Division,WeightClassKg,Place,Name,Team,BodyweightKg,Best3SquatKg,Best3BenchKg,Best3DeadliftKg,TotalKg,Equipment,Event,Sex
Boys,55.79,1,Jason Samaniego,Altair Rice,51.8,120.2,58.97,127.01,306.17,Single-ply,SBD,M
Boys,51.71,2,Hunter Keszler,Ganado,49.71,104.33,56.7,102.06,263.08,Single-ply,SBD,M
Boys,51.71,3,Adam Morton,Louise,40.19,99.79,43.09,104.33,247.21,Single-ply,SBD,M
Boys,55.79,1,Jordan Glueck,Columbus,55.79,156.49,77.11,165.56,399.16,Single-ply,SBD,M
Boys,55.79,2,Luis Grijalva,Wallis Brazos,54.7,111.13,63.5,133.81,308.44,Single-ply,SBD,M
Boys,55.79,3,Chris Glass,Ganado,54.98,120.2,56.7,124.74,301.64,Single-ply,SBD,M
Boys,59.87,1,Garrett Rios,Columbus,58.79,136.08,102.06,140.61,378.75,Single-ply,SBD,M
Boys,59.87,2,Jesus Lara,Columbus,59.87,122.47,79.38,131.54,333.39,Single-ply,SBD,M
Boys,59.87,3,Freddy Hernandez #1,Hearne,57.06,90.72,58.97,120.2,269.89,Single-ply,SBD,M
Boys,59.87,DQ,Gerardo Paredes,Brookshire Royal,58.79,147.42,,,,Single-ply,SBD,M
Boys,67.13,1,Leo Alfaro,Hempstead,65.86,190.51,113.4,226.8,530.7,Single-ply,SBD,M
Boys,67.13,2,Tanner Surratt,Louise,66.32,192.78,111.13,206.38,510.29,Single-ply,SBD,M
Boys,67.13,3,Lance Howard,Altair Rice,64.86,190.51,99.79,170.1,460.4,Single-ply,SBD,M
Boys,67.13,4,Kendrick Scott,Needville,67.13,156.49,102.06,185.97,444.52,Single-ply,SBD,M
Boys,67.13,5,Derek Sless,Louise,66.86,154.22,99.79,163.29,417.3,Single-ply,SBD,M
Boys,74.84,6,Eric Sanchez,Wallis Brazos,67.36,158.76,88.45,167.83,415.04,Single-ply,SBD,M
Boys,67.13,7,Juan Zamudio,Ganado,66.77,140.61,106.59,158.76,405.97,Single-ply,SBD,M
Boys,67.13,8,Zeke Zamudio,Columbus,65.23,147.42,95.25,154.22,396.89,Single-ply,SBD,M
Boys,67.13,9,Kyle Castilleja,Hearne,66.95,133.81,83.91,172.37,390.09,Single-ply,SBD,M
Boys,67.13,10,Marc Martinez,Hearne,64.23,142.88,68.04,156.49,367.41,Single-ply,SBD,M
Boys,74.84,11,Derek Meyer,Ganado,67.31,136.08,77.11,149.69,362.87,Single-ply,SBD,M
Boys,67.13,12,Matthew Jimenez,Luling,62.87,124.74,88.45,147.42,360.61,Single-ply,SBD,M
Boys,67.13,13,Isaac Tinnell,Hearne,66.68,111.13,70.31,145.15,326.59,Single-ply,SBD,M
Boys,67.13,14,Johnathan Shreckengost,Ganado,64.23,111.13,61.23,149.69,322.05,Single-ply,SBD,M
Boys,67.13,DQ,Josh Mora,Wallis Brazos,63.87,147.42,90.72,,,Single-ply,SBD,M
Boys,74.84,1,Rj Denson,Needville,74.39,204.12,124.74,235.87,564.72,Single-ply,SBD,M
Boys,74.84,2,Kaleb Walker,Columbus,68.22,213.19,129.27,219.99,562.45,Single-ply,SBD,M
Boys,74.84,3,Michael Hernandez,Brookshire Royal,73.12,190.51,133.81,229.06,553.38,Single-ply,SBD,M
Boys,74.84,4,Jordan Benford,Columbus,74.48,188.24,131.54,217.72,537.51,Single-ply,SBD,M
Boys,74.84,5,Jamy Adams,Altair Rice,71.76,206.38,102.06,181.44,489.88,Single-ply,SBD,M
Boys,82.1,6,Tyler Cardenas,Schulenburg,75.02,176.9,124.74,176.9,478.54,Single-ply,SBD,M
Boys,74.84,7,Chris Castilleja,Hearne,74.48,176.9,111.13,185.97,474,Single-ply,SBD,M
Boys,74.84,8,Jacob Martinez #11,Hearne,72.57,158.76,90.72,204.12,453.59,Single-ply,SBD,M
Boys,74.84,9,Logan Henslee,Louise,73.12,170.1,120.2,163.29,453.59,Single-ply,SBD,M
Boys,74.84,10,Aaron Bermudez,Luling,74.66,181.44,92.99,158.76,433.18,Single-ply,SBD,M
Boys,74.84,11,Jorge Munoz,Luling,68.22,158.76,92.99,147.42,399.16,Single-ply,SBD,M
Boys,82.1,12,Cesar Sanchez,Luling,74.93,147.42,83.91,151.95,383.29,Single-ply,SBD,M
Boys,74.84,13,Dillon Kuhlman,Ganado,74.66,136.08,88.45,145.15,369.68,Single-ply,SBD,M
Boys,74.84,14,Quinton Grant,Luling,72.57,140.61,88.45,138.35,367.41,Single-ply,SBD,M
Boys,74.84,15,Clint Cantu,Luling,72.48,117.93,77.11,124.74,319.78,Single-ply,SBD,M
Boys,74.84,16,Brandon Thort,Columbus,69.22,97.52,68.04,117.93,283.5,Single-ply,SBD,M
Boys,82.1,1,Thomas McNeal,Luling,80.2,204.12,108.86,210.92,523.9,Single-ply,SBD,M
Boys,82.1,2,Tanner Heffner,Schulenburg,80.01,188.24,124.74,195.04,508.02,Single-ply,SBD,M
Boys,82.1,3,Thomas Aguilar,Wallis Brazos,81.65,181.44,111.13,181.44,474,Single-ply,SBD,M
Boys,82.1,4,Sean McGrew,Hearne,77.93,181.44,102.06,183.7,467.2,Single-ply,SBD,M
Boys,82.1,5,Teofilo Lozano,Hempstead,80.83,156.49,117.93,165.56,439.98,Single-ply,SBD,M
Boys,82.1,6,Jacob Garbs,Wallis Brazos,80.56,149.69,81.65,158.76,390.09,Single-ply,SBD,M
Boys,82.1,7,Aj Burks,Luling,77.29,142.88,102.06,142.88,387.82,Single-ply,SBD,M
Boys,82.1,8,Josh Trevino,Luling,77.2,142.88,74.84,142.88,360.61,Single-ply,SBD,M
Boys,82.1,9,Donnie Lancaster,Luling,81.47,142.88,83.91,131.54,358.34,Single-ply,SBD,M
Boys,99.79,1,Abraham Castillo,Altair Rice,89.99,240.4,131.54,217.72,589.67,Single-ply,SBD,M
Boys,89.81,2,James Garner,Altair Rice,88,226.8,115.67,210.92,553.38,Single-ply,SBD,M
Boys,89.81,3,Demarcus Tillman,Altair Rice,88.54,226.8,115.67,204.12,546.58,Single-ply,SBD,M
Boys,89.81,4,Aaron Werlein,Luling,83.46,217.72,108.86,206.38,532.97,Single-ply,SBD,M
Boys,89.81,5,Brandon Wavra,Columbus,86,172.37,127.01,170.1,469.47,Single-ply,SBD,M
Boys,89.81,6,Jesse Soria,Altair Rice,89.27,170.1,95.25,181.44,446.79,Single-ply,SBD,M
Boys,99.79,1,Gabe Guillen,Luling,98.34,231.33,147.42,215.46,594.21,Single-ply,SBD,M
Boys,99.79,2,Damarious Bluntson,Brookshire Royal,94.98,242.67,117.93,226.8,587.4,Single-ply,SBD,M
Boys,99.79,3,Case Silliman,Ganado,97.34,226.8,136.08,215.46,578.33,Single-ply,SBD,M
Boys,99.79,4,Alex Tamez,Louise,97.34,249.48,127.01,190.51,566.99,Single-ply,SBD,M
Boys,109.77,5,Bryan Ruiz,Luling,100.02,226.8,124.74,208.65,560.19,Single-ply,SBD,M
Boys,109.77,6,Tyler Gibson,Luling,99.97,204.12,113.4,204.12,521.63,Single-ply,SBD,M
Boys,99.79,7,Alex Flores,Hearne,91.99,185.97,108.86,192.78,487.61,Single-ply,SBD,M
Boys,99.79,8,Dalton Peck,Luling,92.99,181.44,106.59,158.76,446.79,Single-ply,SBD,M
Boys,99.79,DQ,Omar Ordonez,Luling,99.06,226.8,129.27,,,Single-ply,SBD,M
Boys,109.77,1,Desmond Pulliam,Louise,103.96,249.48,147.42,260.82,657.71,Single-ply,SBD,M
Boys,109.77,2,Rj Rubesh,Louise,108.05,276.69,158.76,215.46,650.91,Single-ply,SBD,M
Boys,109.77,3,Orlando Ordonez,Luling,104.24,238.14,140.61,201.85,580.6,Single-ply,SBD,M
Boys,109.77,4,Matt Guerrero,Luling,104.96,240.4,136.08,192.78,569.26,Single-ply,SBD,M
Boys,109.77,5,Tristan Wendt,Schulenburg,109.04,213.19,133.81,197.31,544.31,Single-ply,SBD,M
Boys,109.77,6,Zach Olguin,Luling,109.13,238.14,104.33,174.63,517.1,Single-ply,SBD,M
Boys,124.74,7,Justin Lavedar,Columbus,109.95,192.78,113.4,174.63,480.81,Single-ply,SBD,M
Boys,109.77,DQ,Carlos Martinez #20,Schulenburg,109.77,206.38,111.13,,,Single-ply,SBD,M
Boys,124.74,1,Jonovan Allen,Altair Rice,110.31,240.4,140.61,249.48,630.49,Single-ply,SBD,M
Boys,124.74,2,Jaylon Bradford,Louise,118.57,215.46,127.01,238.14,580.6,Single-ply,SBD,M
Boys,124.74,3,Jared Kaster,Altair Rice,113.94,195.04,115.67,210.92,521.63,Single-ply,SBD,M
Boys,124.74,4,Sabastian Ramirez,Luling,118.48,222.26,111.13,165.56,498.95,Single-ply,SBD,M
Boys,124.74,DQ,Will Malek,Ganado,118.75,176.9,,,,Single-ply,SBD,M
Boys,124.74,DQ,Denton Lesak,Ganado,123.2,226.8,,,,Single-ply,SBD,M
Boys,124.74+,1,Chad Davis #3,Altair Rice,134.63,240.4,142.88,229.06,612.35,Single-ply,SBD,M
